2500	98.455566
2505	98.468567
2510	98.518059
2515	98.507647
2520	98.602273
2525	98.510898
2530	98.570436
2535	98.580598
2540	98.52948
2545	98.576135
2550	98.59146
2555	98.541464
2560	98.546089
2565	98.515329
2570	98.516553
2575	98.578248
2580	98.607834
2585	98.527236
2590	98.628916
2595	98.570692
2600	98.55483
2605	98.554581
2610	98.569913
2615	98.529532
2620	98.541162
2625	98.577379
2630	98.591348
2635	98.569695
2640	98.559305
2645	98.593953
2650	98.5346
2655	98.529066
2660	98.526337
2665	98.57037
2670	98.584927
2675	98.538127
2680	98.578357
2685	98.583834
2690	98.569881
2695	98.471483
2700	98.468109
2705	98.498794
2710	98.447814
2715	98.444137
2720	98.369541
2725	98.292868
2730	98.174465
2735	98.09078
2740	97.917693
2745	97.968636
2750	97.853681
2755	97.739633
2760	97.633493
2765	97.525237
2770	97.494925
2775	97.382926
2780	97.346034
2785	97.353354
2790	97.268281
2795	97.200516
2800	97.170618
2805	97.224753
2810	97.142102
2815	97.103553
2820	97.058579
2825	97.049537
2830	97.051323
2835	96.973052
2840	96.983122
2845	96.922757
2850	96.988211
2855	97.004924
2860	96.983619
2865	96.98309
2870	96.991393
2875	96.903619
2880	96.958581
2885	96.969074
2890	97.026817
2895	96.959613
2900	97.01542
2905	97.051188
2910	97.006337
2915	97.066284
2920	97.069924
2925	97.079024
2930	97.117207
2935	97.115799
2940	97.172733
2945	97.174677
2950	97.177761
2955	97.17689
2960	97.162092
2965	97.242017
2970	97.273396
2975	97.201607
2980	97.258222
2985	97.351451
2990	97.302159
2995	97.363448
3000	97.425231
3005	97.401707
3010	97.439765
3015	97.477812
3020	97.481364
3025	97.476834
3030	97.470941
3035	97.518406
3040	97.559273
3045	97.604798
3050	97.603741
3055	97.629678
3060	97.599596
3065	97.697484
3070	97.679085
3075	97.69032
3080	97.714559
3085	97.739853
3090	97.739367
3095	97.768303
3100	97.747264
3105	97.779298
3110	97.78651
3115	97.820566
3120	97.823725
3125	97.783173
3130	97.864764
3135	97.939134
3140	97.865388
3145	97.897555
3150	97.905549
3155	97.896526
3160	97.952396
3165	97.957307
3170	97.953536
3175	98.011251
3180	97.980549
3185	98.043911
3190	98.028189
3195	98.016429
3200	98.091826
3205	98.085094
3210	98.06356
3215	97.991494
3220	98.102068
3225	98.068816
3230	98.080265
3235	98.079098
3240	98.149767
3245	98.123336
3250	98.133529
3255	98.163837
3260	98.124275
3265	98.163546
3270	98.161115
3275	98.208987
3280	98.208267
3285	98.22895
3290	98.20335
3295	98.218637
3300	98.25173
3305	98.245534
3310	98.271075
3315	98.276385
3320	98.262871
3325	98.271903
3330	98.299663
3335	98.237171
3340	98.288635
3345	98.277148
3350	98.264011
3355	98.309067
3360	98.331773
3365	98.297159
3370	98.31953
3375	98.281907
3380	98.318666
3385	98.33545
3390	98.348386
3395	98.39509
3400	98.337457
3405	98.293817
3410	98.383002
3415	98.377509
3420	98.392056
3425	98.392294
3430	98.427372
3435	98.406151
3440	98.40876
3445	98.425189
3450	98.356273
3455	98.430372
3460	98.468029
3465	98.438033
3470	98.425929
3475	98.444567
3480	98.445215
3485	98.455333
3490	98.456981
3495	98.467881
3500	98.468628
3505	98.470559
3510	98.475133
3515	98.454026
3520	98.471563
3525	98.457453
3530	98.500748
3535	98.484115
3540	98.470877
3545	98.503873
3550	98.48041
3555	98.471602
3560	98.497261
3565	98.492392
3570	98.459645
3575	98.55081
3580	98.533955
3585	98.453348
3590	98.483245
3595	98.516129
3600	98.473299
3605	98.543831
3610	98.502597
3615	98.520684
3620	98.546827
3625	98.516276
3630	98.523464
3635	98.528294
3640	98.54964
3645	98.543348
3650	98.536032
3655	98.541211
3660	98.541324
3665	98.55566
3670	98.577366
3675	98.576162
3680	98.52371
3685	98.570064
3690	98.563312
3695	98.566765
3700	98.545849
3705	98.54158
3710	98.533333
3715	98.540359
3720	98.535489
3725	98.583109
3730	98.546597
3735	98.583204
3740	98.576463
3745	98.597663
3750	98.560519
3755	98.541473
3760	98.558177
3765	98.574943
3770	98.587053
3775	98.552275
3780	98.57789
3785	98.546954
3790	98.567151
3795	98.576193
3800	98.562563
3805	98.555122
3810	98.570727
3815	98.616344
3820	98.587049
3825	98.552103
3830	98.568622
3835	98.597482
3840	98.617366
3845	98.59841
3850	98.57847
3855	98.575472
3860	98.586127
3865	98.579486
3870	98.593698
3875	98.595538
3880	98.58608
3885	98.612734
3890	98.608629
3895	98.621259
3900	98.575459
3905	98.596654
3910	98.591987
3915	98.621371
3920	98.624075
3925	98.604046
3930	98.598937
3935	98.602636
3940	98.645144
3945	98.621765
3950	98.598612
3955	98.612027
3960	98.612145
3965	98.638748
3970	98.618734
3975	98.62258
3980	98.631872
3985	98.661219
3990	98.635044
3995	98.599404
4000	98.608972
4005	98.617926
4010	98.589293
4015	98.589217
4020	98.602063
4025	98.60243
4030	98.624115
4035	98.631674
4040	98.604694
4045	98.615279
4050	98.584138
4055	98.594716
4060	98.59277
4065	98.615003
4070	98.619611
4075	98.600535
4080	98.588616
4085	98.588915
4090	98.614273
4095	98.625234
4100	98.636416
4105	98.605655
4110	98.628058
4115	98.622946
4120	98.580035
4125	98.599874
4130	98.601726
4135	98.607508
4140	98.601135
4145	98.60703
4150	98.587334
4155	98.594395
4160	98.611572
4165	98.611345
4170	98.597144
4175	98.551881
4180	98.563428
4185	98.621238
4190	98.624708
4195	98.623286
4200	98.609685
4205	98.632634
4210	98.61898
4215	98.611665
4220	98.627704
4225	98.630504
4230	98.596706
4235	98.585838
4240	98.750789
4245	98.675695
4250	98.570225
4255	98.595629
4260	98.602638
4265	98.656589
4270	98.667294
4275	98.657468
4280	98.633075
4285	98.591785
4290	98.595999
4295	98.608024
4300	98.588053
4305	98.59866
4310	98.632408
4315	98.613178
4320	98.61088
4325	98.603703
4330	98.5678
4335	98.551974
4340	98.571619
4345	98.561402
4350	98.558729
4355	98.567743
4360	98.544445
4365	98.556149
4370	98.584032
4375	98.588162
4380	98.590114
4385	98.585476
4390	98.589123
4395	98.582872
4400	98.557128
4405	98.574562
4410	98.584657
4415	98.583029
4420	98.599838
4425	98.592203
4430	98.605174
4435	98.600207
4440	98.599941
4445	98.59218
4450	98.580949
4455	98.587571
4460	98.608171
4465	98.623939
4470	98.610654
4475	98.614099
4480	98.624272
4485	98.619579
4490	98.601202
4495	98.585567
4500	98.601208
4505	98.611869
4510	98.61577
4515	98.592482
4520	98.570412
4525	98.59234
4530	98.599517
4535	98.601427
4540	98.615539
4545	98.620516
4550	98.609251
4555	98.612543
4560	98.604455
4565	98.588927
4570	98.590093
4575	98.612195
4580	98.619942
4585	98.610036
4590	98.602612
4595	98.610872
4600	98.620185
4605	98.610463
4610	98.599584
4615	98.592769
4620	98.581999
4625	98.597121
4630	98.61605
4635	98.606004
4640	98.59751
4645	98.576857
4650	98.56343
4655	98.577576
4660	98.603233
4665	98.613605
4670	98.613733
4675	98.597029
4680	98.595187
4685	98.610217
4690	98.600307
4695	98.581162
4700	98.581944
4705	98.568221
4710	98.576962
4715	98.607163
4720	98.611116
4725	98.587975
4730	98.577674
4735	98.584601
4740	98.589443
4745	98.597244
4750	98.600794
4755	98.617084
4760	98.6194
4765	98.592524
4770	98.59471
4775	98.605912
4780	98.585337
4785	98.569905
4790	98.562951
4795	98.57482
4800	98.585491
4805	98.589937
4810	98.576884
4815	98.569143
4820	98.583686
4825	98.57826
4830	98.573597
4835	98.57602
4840	98.572013
4845	98.559346
4850	98.586983
4855	98.604078
4860	98.574548
4865	98.553816
4870	98.561021
4875	98.560682
4880	98.556669
4885	98.568261
4890	98.582726
4895	98.594738
4900	98.599626
4905	98.603587
4910	98.602648
4915	98.580582
4920	98.5649
4925	98.566968
4930	98.567886
4935	98.56185
4940	98.556258
4945	98.535571
4950	98.5364
4955	98.561281
4960	98.577753
4965	98.563133
4970	98.545498
4975	98.545655
4980	98.553826
4985	98.53938
4990	98.532401
4995	98.547504
5000	98.549847
5005	98.550981
5010	98.553944
5015	98.537375
5020	98.519054
5025	98.527246
5030	98.535509
5035	98.535272
5040	98.54454
5045	98.55293
5050	98.538487
5055	98.512619
5060	98.51346
5065	98.537333
5070	98.544026
5075	98.534778
5080	98.535936
5085	98.53965
5090	98.536255
5095	98.537557
5100	98.551721
5105	98.545887
5110	98.529427
5115	98.529222
5120	98.530297
5125	98.527468
5130	98.526459
5135	98.524383
5140	98.522944
5145	98.526253
5150	98.531308
5155	98.537213
5160	98.530855
5165	98.519971
5170	98.52698
5175	98.545284
5180	98.551668
5185	98.548195
5190	98.542061
5195	98.539276
5200	98.538282
5205	98.534041
5210	98.535318
5215	98.533438
5220	98.535
5225	98.540759
5230	98.545308
5235	98.540173
5240	98.531152
5245	98.533353
5250	98.53551
5255	98.524259
5260	98.50993
5265	98.507923
5270	98.516705
5275	98.527129
5280	98.520492
5285	98.515516
5290	98.53338
5295	98.547097
5300	98.536977
5305	98.525535
5310	98.51892
5315	98.506056
5320	98.510582
5325	98.524523
5330	98.525289
5335	98.516772
5340	98.502328
5345	98.49166
5350	98.489736
5355	98.49173
5360	98.499226
5365	98.514804
5370	98.520522
5375	98.524272
5380	98.52111
5385	98.504771
5390	98.505663
5395	98.51104
5400	98.518702
5405	98.533511
5410	98.529525
5415	98.521729
5420	98.525756
5425	98.523417
5430	98.510011
5435	98.501285
5440	98.498541
5445	98.491592
5450	98.489613
5455	98.504732
5460	98.529271
5465	98.541274
5470	98.530701
5475	98.518855
5480	98.513057
5485	98.514033
5490	98.521077
5495	98.520651
5500	98.508437
5505	98.503977
5510	98.500133
5515	98.483117
5520	98.484038
5525	98.504924
5530	98.520729
5535	98.522586
5540	98.514086
5545	98.507198
5550	98.493181
5555	98.482199
5560	98.492233
5565	98.503594
5570	98.508352
5575	98.509235
5580	98.509377
5585	98.506036
5590	98.492565
5595	98.482702
5600	98.481296
5605	98.484451
5610	98.494151
5615	98.503857
5620	98.503399
5625	98.492399
5630	98.485971
5635	98.499033
5640	98.513825
5645	98.513285
5650	98.508198
5655	98.503766
5660	98.499304
5665	98.489778
5670	98.477931
5675	98.474627
5680	98.482081
5685	98.492111
5690	98.489572
5695	98.475325
5700	98.471482
5705	98.484085
5710	98.509196
5715	98.525061
5720	98.517695
5725	98.507359
5730	98.50137
5735	98.50136
5740	98.51079
5745	98.513555
5750	98.505097
5755	98.492507
5760	98.477827
5765	98.4708
5770	98.471962
5775	98.466533
5780	98.468221
5785	98.476641
5790	98.479648
5795	98.480941
5800	98.48805
5805	98.493976
5810	98.490427
5815	98.484467
5820	98.480359
5825	98.476441
5830	98.470708
5835	98.460628
5840	98.450792
5845	98.443976
5850	98.435846
5855	98.428754
5860	98.426805
5865	98.421197
5870	98.41235
5875	98.408419
5880	98.40547
5885	98.39773
5890	98.388809
5895	98.385248
5900	98.374944
5905	98.363007
5910	98.368279
5915	98.3848
5920	98.396025
5925	98.3959
5930	98.388694
5935	98.378112
5940	98.372724
5945	98.362799
5950	98.346322
5955	98.338146
5960	98.347536
5965	98.357926
5970	98.354224
5975	98.339604
5980	98.323064
5985	98.321131
5990	98.341977
5995	98.354216
6000	98.339544
6005	98.318105
6010	98.311286
6015	98.321511
6020	98.332384
6025	98.336718
6030	98.340364
6035	98.340948
6040	98.334973
6045	98.324782
6050	98.317464
6055	98.302284
6060	98.286362
6065	98.278254
6070	98.279315
6075	98.283901
6080	98.271542
6085	98.251179
6090	98.243094
6095	98.247671
6100	98.254226
6105	98.255225
6110	98.246471
6115	98.235183
6120	98.23375
6125	98.239207
6130	98.238887
6135	98.225505
6140	98.206719
6145	98.197301
6150	98.203914
6155	98.21805
6160	98.225314
6165	98.217367
6170	98.199295
6175	98.181668
6180	98.172259
6185	98.178346
6190	98.197666
6195	98.215403
6200	98.222088
6205	98.221912
6210	98.225262
6215	98.226341
6220	98.215425
6225	98.202604
6230	98.19865
6235	98.203627
6240	98.220182
6245	98.244248
6250	98.26278
6255	98.271446
6260	98.271355
6265	98.262246
6270	98.249093
6275	98.236924
6280	98.225148
6285	98.218649
6290	98.222038
6295	98.225972
6300	98.224995
6305	98.228025
6310	98.232151
6315	98.224476
6320	98.209847
6325	98.201457
6330	98.199679
6335	98.20138
6340	98.203821
6345	98.198797
6350	98.184188
6355	98.171364
6360	98.165709
6365	98.164546
6370	98.168521
6375	98.175381
6380	98.180216
6385	98.183348
6390	98.182971
6395	98.17802
6400	98.170045
6405	98.149796
6410	98.103846
6415	98.069309
6420	98.07629
6425	98.087407
6430	98.084599
6435	98.076334
6440	98.074527
6445	98.078166
6450	98.075754
6455	98.063413
6460	98.048936
6465	98.039091
6470	98.032285
6475	98.022217
6480	98.00284
6485	97.971223
6490	97.936535
6495	97.919926
6500	97.924393
6505	97.933023
6510	97.933632
6515	97.920936
6520	97.904536
6525	97.90194
6530	97.910029
6535	97.910309
6540	97.894703
6545	97.872698
6550	97.861998
6555	97.869845
6560	97.884843
6565	97.891048
6570	97.884122
6575	97.876277
6580	97.8788
6585	97.890785
6590	97.903915
6595	97.910656
6600	97.909237
6605	97.90223
6610	97.892004
6615	97.88314
6620	97.881269
6625	97.887918
6630	97.899696
6635	97.911536
6640	97.917193
6645	97.913843
6650	97.90774
6655	97.900331
6660	97.890324
6665	97.882946
6670	97.885826
6675	97.897292
6680	97.907842
6685	97.910339
6690	97.906075
6695	97.904616
6700	97.914205
6705	97.933478
6710	97.949948
6715	97.952196
6720	97.943824
6725	97.934693
6730	97.928942
6735	97.923542
6740	97.915332
6745	97.906269
6750	97.898725
6755	97.893722
6760	97.893171
6765	97.899082
6770	97.909775
6775	97.92214
6780	97.938271
6785	97.961991
6790	97.983157
6795	97.984384
6800	97.969473
6805	97.959617
6810	97.964876
6815	97.979986
6820	97.997622
6825	98.013862
6830	98.023576
6835	98.024288
6840	98.022435
6845	98.026799
6850	98.039091
6855	98.055384
6860	98.071136
6865	98.079844
6870	98.07442
6875	98.061453
6880	98.054697
6885	98.059887
6890	98.071563
6895	98.080083
6900	98.082868
6905	98.083744
6910	98.083451
6915	98.080085
6920	98.07675
6925	98.081186
6930	98.094551
6935	98.107582
6940	98.111138
6945	98.105879
6950	98.098103
6955	98.091514
6960	98.088023
6965	98.089111
6970	98.094446
6975	98.101897
6980	98.108443
6985	98.110893
6990	98.108222
6995	98.102607
7000	98.098197
7005	98.097866
7010	98.101835
7015	98.108552
7020	98.116404
7025	98.124652
7030	98.132133
7035	98.137146
7040	98.138392
7045	98.135691
7050	98.12965
7055	98.123561
7060	98.122977
7065	98.128959
7070	98.135773
7075	98.137572
7080	98.135159
7085	98.133707
7090	98.135076
7095	98.136684
7100	98.136517
7105	98.13457
7110	98.131009
7115	98.126728
7120	98.126214
7125	98.135371
7130	98.154404
7135	98.176493
7140	98.193577
7145	98.201355
7150	98.199552
7155	98.18971
7160	98.174454
7165	98.158069
7170	98.145553
7175	98.1394
7180	98.139208
7185	98.145213
7190	98.157241
7195	98.171724
7200	98.18295
7205	98.187882
7210	98.188119
7215	98.185973
7220	98.181127
7225	98.173961
7230	98.169035
7235	98.172088
7240	98.183858
7245	98.198237
7250	98.207644
7255	98.209155
7260	98.205541
7265	98.201964
7270	98.20249
7275	98.207729
7280	98.213992
7285	98.215896
7290	98.211413
7295	98.204051
7300	98.199698
7305	98.200939
7310	98.205314
7315	98.208265
7320	98.207214
7325	98.20252
7330	98.196173
7335	98.190585
7340	98.187398
7345	98.186687
7350	98.187469
7355	98.188616
7360	98.188886
7365	98.18635
7370	98.17899
7375	98.167433
7380	98.156989
7385	98.154338
7390	98.160151
7395	98.16746
7400	98.168407
7405	98.162146
7410	98.154698
7415	98.152884
7420	98.158471
7425	98.167364
7430	98.173965
7435	98.175828
7440	98.174286
7445	98.17147
7450	98.168341
7455	98.165166
7460	98.162282
7465	98.160068
7470	98.15853
7475	98.157274
7480	98.156132
7485	98.155734
7490	98.156623
7495	98.157363
7500	98.154619
7505	98.145834
7510	98.132117
7515	98.118642
7520	98.111897
7525	98.115098
7530	98.124621
7535	98.131128
7540	98.127514
7545	98.114136
7550	98.09703
7555	98.082814
7560	98.074626
7565	98.071168
7570	98.069465
7575	98.069167
7580	98.072114
7585	98.077693
7590	98.082178
7595	98.081557
7600	98.074344
7605	98.062821
7610	98.051315
7615	98.042014
7620	98.033446
7625	98.023604
7630	98.012576
7635	98.003089
7640	97.99926
7645	98.003674
7650	98.013455
7655	98.021772
7660	98.023837
7665	98.019623
7670	98.01287
7675	98.008262
7680	98.007263
7685	98.006699
7690	98.003779
7695	97.998301
7700	97.991211
7705	97.983119
7710	97.973044
7715	97.95917
7720	97.942063
7725	97.924657
7730	97.910484
7735	97.902313
7740	97.900999
7745	97.904453
7750	97.908275
7755	97.909076
7760	97.905618
7765	97.898359
7770	97.888575
7775	97.876426
7780	97.861379
7785	97.844784
7790	97.82911
7795	97.816537
7800	97.807304
7805	97.798747
7810	97.789928
7815	97.782572
7820	97.778137
7825	97.776117
7830	97.771455
7835	97.757743
7840	97.734646
7845	97.706212
7850	97.678491
7855	97.656991
7860	97.642836
7865	97.63407
7870	97.62873
7875	97.625046
7880	97.621599
7885	97.616595
7890	97.607742
7895	97.593262
7900	97.572603
7905	97.546849
7910	97.519979
7915	97.496002
7920	97.475418
7925	97.456367
7930	97.435171
7935	97.409524
7940	97.382746
7945	97.358481
7950	97.338313
7955	97.320369
7960	97.297593
7965	97.265415
7970	97.223396
7975	97.173587
7980	97.12026
7985	97.067153
7990	97.016149
7995	96.968467
8000	96.924664
8005	96.884207
8010	96.84498
8015	96.805351
8020	96.76458
8025	96.723207
8030	96.683584
8035	96.646519
8040	96.611043
8045	96.575097
8050	96.535828
8055	96.494898
8060	96.456895
8065	96.426526
8070	96.407871
8075	96.397478
8080	96.388612
8085	96.376076
8090	96.356379
8095	96.332679
8100	96.31046
8105	96.293223
8110	96.28306
8115	96.278221
8120	96.274639
8125	96.269514
8130	96.260967
8135	96.250011
8140	96.240735
8145	96.2351
8150	96.233632
8155	96.232886
8160	96.227508
8165	96.216071
8170	96.198814
8175	96.179585
8180	96.161986
8185	96.147099
8190	96.135315
8195	96.12622
8200	96.119348
8205	96.113437
8210	96.106935
8215	96.097356
8220	96.085017
8225	96.071516
8230	96.059006
8235	96.049016
8240	96.039423
8245	96.027991
8250	96.01195
8255	95.989485
8260	95.961055
8265	95.928083
8270	95.893374
8275	95.862962
8280	95.840064
8285	95.826242
8290	95.818795
8295	95.810369
8300	95.797798
8305	95.778989
8310	95.758413
8315	95.740418
8320	95.726725
8325	95.717052
8330	95.706967
8335	95.69419
8340	95.676854
8345	95.654159
8350	95.626413
8355	95.594832
8360	95.561419
8365	95.530825
8370	95.504236
8375	95.481804
8380	95.459461
8385	95.432847
8390	95.401053
8395	95.364572
8400	95.328639
8405	95.295222
8410	95.265668
8415	95.238204
8420	95.210695
8425	95.182203
8430	95.152292
8435	95.122358
8440	95.093902
8445	95.06863
8450	95.04907
8455	95.034645
8460	95.024121
8465	95.012371
8470	94.994177
8475	94.967838
8480	94.93286
8485	94.895698
8490	94.860296
8495	94.831123
8500	94.808921
8505	94.79154
8510	94.777006
8515	94.762351
8520	94.746398
8525	94.728117
8530	94.706082
8535	94.679894
8540	94.650321
8545	94.619399
8550	94.5916
8555	94.568241
8560	94.55075
8565	94.535136
8570	94.518881
8575	94.498925
8580	94.476173
8585	94.453203
8590	94.432597
8595	94.415477
8600	94.399241
8605	94.381764
8610	94.360162
8615	94.336384
8620	94.311853
8625	94.290384
8630	94.271776
8635	94.255947
8640	94.240963
8645	94.227268
8650	94.215136
8655	94.206103
8660	94.198926
8665	94.192678
8670	94.184275
8675	94.173382
8680	94.159795
8685	94.144942
8690	94.128398
8695	94.109824
8700	94.087001
8705	94.060733
8710	94.031749
8715	94.005107
8720	93.984041
8725	93.971077
8730	93.966198
8735	93.965679
8740	93.966521
8745	93.961927
8750	93.950397
8755	93.929789
8760	93.903787
8765	93.876212
8770	93.852075
8775	93.835485
8780	93.825893
8785	93.821971
8790	93.818897
8795	93.815206
8800	93.808918
8805	93.801527
8810	93.793634
8815	93.786697
8820	93.781113
8825	93.777259
8830	93.775804
8835	93.77613
8840	93.777874
8845	93.778051
8850	93.776373
8855	93.771759
8860	93.768772
8865	93.769273
8870	93.778033
8875	93.7923
8880	93.810705
8885	93.825252
8890	93.833989
8895	93.834101
8900	93.828856
8905	93.820181
8910	93.811621
8915	93.804194
8920	93.798402
8925	93.794449
8930	93.792987
8935	93.794512
8940	93.798788
8945	93.804645
8950	93.810383
8955	93.814481
8960	93.816698
8965	93.817682
8970	93.818366
8975	93.819418
8980	93.821164
8985	93.823814
8990	93.827694
8995	93.833329
9000	93.840747
9005	93.848978
9010	93.856614
9015	93.862205
9020	93.865516
9025	93.867237
9030	93.8696
9035	93.873913
9040	93.88113
9045	93.890067
9050	93.899597
9055	93.907779
9060	93.913417
9065	93.91599
9070	93.915196
9075	93.911575
9080	93.905404
9085	93.898784
9090	93.892484
9095	93.889136
9100	93.888642
9105	93.89158
9110	93.895847
9115	93.900832
9120	93.904592
9125	93.907125
9130	93.908116
9135	93.907768
9140	93.906115
9145	93.903068
9150	93.899296
9155	93.895106
9160	93.892622
9165	93.892407
9170	93.896226
9175	93.903758
9180	93.915255
9185	93.928999
9190	93.944374
9195	93.958512
9200	93.970021
9205	93.976523
9210	93.97745
9215	93.972465
9220	93.964097
9225	93.953569
9230	93.943778
9235	93.935107
9240	93.928139
9245	93.922357
9250	93.918081
9255	93.91652
9260	93.918809
9265	93.926592
9270	93.938111
9275	93.952823
9280	93.965467
9285	93.97546
9290	93.980027
9295	93.982262
9300	93.983058
9305	93.986895
9310	93.994098
9315	94.005056
9320	94.017789
9325	94.030132
9330	94.040366
9335	94.047595
9340	94.05256
9345	94.05563
9350	94.058361
9355	94.060888
9360	94.063757
9365	94.066569
9370	94.069254
9375	94.071434
9380	94.073186
9385	94.074712
9390	94.076618
9395	94.079498
9400	94.084309
9405	94.091477
9410	94.101403
9415	94.113985
9420	94.128593
9425	94.144182
9430	94.159409
9435	94.171617
9440	94.179332
9445	94.179736
9450	94.172277
9455	94.157895
9460	94.138182
9465	94.11816
9470	94.100207
9475	94.088519
9480	94.082534
9485	94.082974
9490	94.086029
9495	94.091186
9500	94.096324
9505	94.101888
9510	94.108842
9515	94.116994
9520	94.126858
9525	94.136242
9530	94.144229
9535	94.14989
9540	94.153012
9545	94.15655
9550	94.161003
9555	94.169629
9560	94.181393
9565	94.196119
9570	94.211091
9575	94.224359
9580	94.23436
9585	94.240106
9590	94.243273
9595	94.244073
9600	94.245885
9605	94.24898
9610	94.255708
9615	94.265359
9620	94.277924
9625	94.291277
9630	94.303786
9635	94.313438
9640	94.318783
9645	94.320889
9650	94.319605
9655	94.318793
9660	94.318759
9665	94.32178
9670	94.327309
9675	94.333803
9680	94.340731
9685	94.345968
9690	94.350827
9695	94.355727
9700	94.36272
9705	94.373486
9710	94.387349
9715	94.404822
9720	94.422355
9725	94.439436
9730	94.453834
9735	94.465403
9740	94.475094
9745	94.482943
9750	94.489698
9755	94.494741
9760	94.496112
9765	94.493757
9770	94.485884
9775	94.475025
9780	94.463046
9785	94.453656
9790	94.450848
9795	94.454774
9800	94.467602
9805	94.484025
9810	94.503163
9815	94.519176
9820	94.530287
9825	94.536119
9830	94.536041
9835	94.534488
9840	94.531725
9845	94.531334
9850	94.533403
9855	94.537599
9860	94.543736
9865	94.549607
9870	94.555187
9875	94.559125
9880	94.5615
9885	94.561859
9890	94.560243
9895	94.556336
9900	94.550499
9905	94.543195
9910	94.535238
9915	94.528484
9920	94.523415
9925	94.522024
9930	94.523697
9935	94.52874
9940	94.535891
9945	94.543728
9950	94.551446
9955	94.5574
9960	94.561745
9965	94.563792
9970	94.564367
9975	94.563862
9980	94.563131
9985	94.563143
9990	94.564093
9995	94.566703
10000	94.570363
10005	94.574888
10010	94.579727
10015	94.584144
10020	94.588514
10025	94.592751
10030	94.597494
10035	94.603532
10040	94.610447
10045	94.618447
10050	94.626454
10055	94.63328
10060	94.638869
10065	94.642248
10070	94.644479
10075	94.64646
10080	94.648708
10085	94.652754
10090	94.657992
10095	94.664291
10100	94.671191
10105	94.677437
10110	94.683372
10115	94.688957
10120	94.694501
10125	94.701138
10130	94.70866
10135	94.717197
10140	94.726553
10145	94.735552
10150	94.744256
10155	94.75192
10160	94.75859
10165	94.764077
10170	94.768425
10175	94.770728
10180	94.77101
10185	94.768474
10190	94.762797
10195	94.755346
10200	94.745847
10205	94.736978
10210	94.7294
10215	94.724175
10220	94.722328
10225	94.722999
10230	94.726079
10235	94.730976
10240	94.736823
10245	94.743938
10250	94.752335
10255	94.762107
10260	94.773744
10265	94.786925
10270	94.800716
10275	94.815066
10280	94.827615
10285	94.838517
10290	94.846129
10295	94.850268
10300	94.851473
10305	94.849427
10310	94.845924
10315	94.841344
10320	94.836627
10325	94.832768
10330	94.829281
10335	94.82626
10340	94.823294
10345	94.819332
10350	94.814742
10355	94.80981
10360	94.804642
10365	94.802017
10370	94.801717
10375	94.805896
10380	94.815062
10385	94.828134
10390	94.84553
10395	94.865072
10400	94.885634
10405	94.906476
10410	94.92594
10415	94.944049
10420	94.959423
10425	94.972169
10430	94.980638
10435	94.984931
10440	94.984926
10445	94.979951
10450	94.97327
10455	94.96488
10460	94.958024
10465	94.955586
10470	94.957238
10475	94.965168
10480	94.978253
10485	94.993991
10490	95.012694
10495	95.030362
10500	95.046948
10505	95.061413
10510	95.072995
10515	95.082724
10520	95.090788
10525	95.097805
10530	95.105048
10535	95.112437
10540	95.121512
10545	95.132112
10550	95.144669
10555	95.15962
10560	95.175317
10565	95.1917
10570	95.207335
10575	95.220179
10580	95.230772
10585	95.23828
10590	95.242859
10595	95.247164
10600	95.250945
10605	95.256159
10610	95.263987
10615	95.273251
10620	95.2838
10625	95.29497
10630	95.304209
10635	95.311934
10640	95.317776
10645	95.321136
10650	95.32477
10655	95.32904
10660	95.33543
10665	95.346444
10670	95.361385
10675	95.38111
10680	95.405693
10685	95.43233
10690	95.461545
10695	95.490152
10700	95.516209
10705	95.539672
10710	95.558021
10715	95.571951
10720	95.583218
10725	95.591089
10730	95.599528
10735	95.609831
10740	95.622232
10745	95.638881
10750	95.658622
10755	95.678572
10760	95.699473
10765	95.717056
10770	95.730045
10775	95.739026
10780	95.742781
10785	95.742625
10790	95.742434
10795	95.74138
10800	95.743625
10805	95.750102
10810	95.760665
10815	95.77648
10820	95.796651
10825	95.819273
10830	95.844855
10835	95.870535
10840	95.896085
10845	95.920413
10850	95.941861
10855	95.960871
10860	95.976471
10865	95.98857
10870	95.998273
10875	96.005356
10880	96.010977
10885	96.016731
10890	96.022276
10895	96.029255
10900	96.037694
10905	96.047516
10910	96.059016
10915	96.07177
10920	96.085159
10925	96.099352
10930	96.113197
10935	96.126797
10940	96.139417
10945	96.150225
10950	96.159468
10955	96.166612
10960	96.171461
10965	96.175245
10970	96.177988
10975	96.180428
10980	96.184362
10985	96.189375
10990	96.196042
10995	96.204834
11000	96.214733
11005	96.225008
11010	96.235812
11015	96.246125
11020	96.255767
11025	96.265531
11030	96.275582
11035	96.286124
11040	96.2983
11045	96.312047
11050	96.326711
11055	96.342601
11060	96.35881
11065	96.373779
11070	96.387919
11075	96.400219
11080	96.410225
11085	96.41861
11090	96.425679
11095	96.431379
11100	96.437124
11105	96.442861
11110	96.449025
11115	96.456287
11120	96.464387
11125	96.473301
11130	96.483218
11135	96.493518
11140	96.503871
11145	96.514294
11150	96.523877
11155	96.532669
11160	96.540589
11165	96.547301
11170	96.553091
11175	96.558725
11180	96.563896
11185	96.569616
11190	96.576556
11195	96.584508
11200	96.594189
11205	96.605734
11210	96.618525
11215	96.632536
11220	96.647537
11225	96.661854
11230	96.675884
11235	96.688472
11240	96.698469
11245	96.706364
11250	96.712006
11255	96.71484
11260	96.716459
11265	96.717942
11270	96.718972
11275	96.72193
11280	96.727129
11285	96.734233
11290	96.74372
11295	96.755518
11300	96.767437
11305	96.779485
11310	96.790979
11315	96.8001
11320	96.807231
11325	96.812602
11330	96.815861
11335	96.817589
11340	96.819072
11345	96.819937
11350	96.821084
11355	96.823065
11360	96.825711
11365	96.829899
11370	96.835519
11375	96.842856
11380	96.852539
11385	96.864379
11390	96.877279
11395	96.891936
11400	96.906774
11405	96.919012
11410	96.929634
11415	96.936316
11420	96.937192
11425	96.933457
11430	96.92608
11435	96.913763
11440	96.899921
11445	96.88766
11450	96.875688
11455	96.868084
11460	96.866113
11465	96.868967
11470	96.877485
11475	96.89214
11480	96.910666
11485	96.932086
11490	96.956698
11495	96.980888
11500	97.004885
11505	97.027637
11510	97.04648
11515	97.062187
11520	97.073789
11525	97.080228
11530	97.082166
11535	97.080623
11540	97.074865
11545	97.066527
11550	97.057812
11555	97.047751
11560	97.038698
11565	97.031976
11570	97.026973
11575	97.025059
11580	97.026579
11585	97.030939
11590	97.037928
11595	97.048007
11600	97.059243
11605	97.070916
11610	97.083271
11615	97.093217
11620	97.10062
11625	97.105247
11630	97.105314
11635	97.100625
11640	97.092844
11645	97.082503
11650	97.069171
11655	97.056917
11660	97.046623
11665	97.038063
11670	97.033849
11675	97.034526
11680	97.038493
11685	97.044824
11690	97.054395
11695	97.063957
11700	97.071572
11705	97.078233
11710	97.082495
11715	97.083241
11720	97.08197
11725	97.080692
11730	97.078412
11735	97.077159
11740	97.079482
11745	97.084581
11750	97.092384
11755	97.103699
11760	97.118016
11765	97.132124
11770	97.146077
11775	97.159322
11780	97.16882
11785	97.174432
11790	97.177021
11795	97.176631
11800	97.172544
11805	97.167663
11810	97.163907
11815	97.160249
11820	97.158779
11825	97.160851
11830	97.165408
11835	97.171314
11840	97.179226
11845	97.188004
11850	97.195245
11855	97.201348
11860	97.206073
11865	97.208586
11870	97.208925
11875	97.207915
11880	97.206075
11885	97.203135
11890	97.199516
11895	97.195507
11900	97.190921
11905	97.185595
11910	97.179216
11915	97.172186
11920	97.165288
11925	97.157976
11930	97.151188
11935	97.146558
11940	97.143765
11945	97.142918
11950	97.144602
11955	97.149033
11960	97.154741
11965	97.160762
11970	97.167721
11975	97.174175
11980	97.179101
11985	97.183068
11990	97.186204
11995	97.188405
12000	97.18977
12005	97.190841
12010	97.191999
12015	97.192812
12020	97.192638
12025	97.191689
12030	97.189655
12035	97.185692
12040	97.17952
12045	97.171855
12050	97.163352
12055	97.153353
12060	97.143141
12065	97.134281
12070	97.126225
12075	97.119373
12080	97.114409
12085	97.111244
12090	97.10932
12095	97.108221
12100	97.10813
12105	97.108965
12110	97.110494
12115	97.112711
12120	97.116377
12125	97.121998
12130	97.129288
12135	97.138233
12140	97.149264
12145	97.162215
12150	97.1753
12155	97.188136
12160	97.201054
12165	97.211945
12170	97.219904
12175	97.225638
12180	97.228861
12185	97.228914
12190	97.226374
12195	97.22302
12200	97.218895
12205	97.213989
12210	97.210257
12215	97.208337
12220	97.207603
12225	97.208116
12230	97.21055
12235	97.214195
12240	97.217111
12245	97.219305
12250	97.220771
12255	97.219776
12260	97.215545
12265	97.208913
12270	97.20062
12275	97.189972
12280	97.177682
12285	97.166466
12290	97.156622
12295	97.147822
12300	97.141858
12305	97.139652
12310	97.140325
12315	97.143033
12320	97.148075
12325	97.155236
12330	97.162451
12335	97.169103
12340	97.175752
12345	97.181297
12350	97.185198
12355	97.187873
12360	97.189235
12365	97.189278
12370	97.188034
12375	97.185314
12380	97.180992
12385	97.175148
12390	97.167807
12395	97.158731
12400	97.147787
12405	97.136254
12410	97.124866
12415	97.112816
12420	97.101834
12425	97.093526
12430	97.087194
12435	97.083021
12440	97.081543
12445	97.083224
12450	97.086552
12455	97.089966
12460	97.094487
12465	97.098873
12470	97.101068
12475	97.101313
12480	97.099768
12485	97.095898
12490	97.089206
12495	97.080378
12500	97.0705
12505	97.059323
12510	97.046987
12515	97.035157
12520	97.024238
12525	97.013739
12530	97.005068
12535	96.999056
12540	96.995104
12545	96.993581
12550	96.995015
12555	96.999514
12560	97.005904
12565	97.01328
12570	97.022747
12575	97.032518
12580	97.040334
12585	97.047042
12590	97.052074
12595	97.0538
12600	97.05174
12605	97.046685
12610	97.039263
12615	97.028978
12620	97.016053
12625	97.002785
12630	96.990145
12635	96.977078
12640	96.965553
12645	96.957191
12650	96.951118
12655	96.947676
12660	96.947486
12665	96.950827
12670	96.956843
12675	96.964553
12680	96.974651
12685	96.986481
12690	96.998176
12695	97.009454
12700	97.020797
12705	97.030808
12710	97.038528
12715	97.044537
12720	97.048945
12725	97.051685
12730	97.052393
12735	97.051952
12740	97.051389
12745	97.050403
12750	97.049104
12755	97.048107
12760	97.047801
12765	97.047811
12770	97.047621
12775	97.047056
12780	97.046409
12785	97.044995
12790	97.042167
12795	97.038123
12800	97.032996
12805	97.026817
12810	97.01934
12815	97.010866
12820	97.001965
12825	96.99275
12830	96.983035
12835	96.973247
12840	96.963641
12845	96.953947
12850	96.944532
12855	96.935779
12860	96.927312
12865	96.919533
12870	96.913166
12875	96.908302
12880	96.904739
12885	96.902766
12890	96.902766
12895	96.904756
12900	96.907869
12905	96.911351
12910	96.915924
12915	96.920813
12920	96.924721
12925	96.927378
12930	96.92924
12935	96.930195
12940	96.929939
12945	96.928334
12950	96.926429
12955	96.925226
12960	96.924218
12965	96.923674
12970	96.924303
12975	96.926566
12980	96.930032
12985	96.934074
12990	96.938384
12995	96.943476
13000	96.948491
13005	96.952464
13010	96.955591
13015	96.957962
13020	96.959272
13025	96.959368
13030	96.958393
13035	96.956354
13040	96.953295
13045	96.949384
13050	96.944289
13055	96.937587
13060	96.929257
13065	96.919415
13070	96.907916
13075	96.894402
13080	96.878592
13085	96.861776
13090	96.84527
13095	96.827892
13100	96.810567
13105	96.795692
13110	96.78439
13115	96.775443
13120	96.769783
13125	96.768459
13130	96.771986
13135	96.779029
13140	96.787977
13145	96.79901
13150	96.812683
13155	96.826341
13160	96.837713
13165	96.848066
13170	96.856975
13175	96.86334
13180	96.866353
13185	96.866715
13190	96.865603
13195	96.863828
13200	96.860344
13205	96.856337
13210	96.853447
13215	96.852048
13220	96.851484
13225	96.851888
13230	96.853527
13235	96.856824
13240	96.860711
13245	96.863927
13250	96.866514
13255	96.868795
13260	96.869882
13265	96.868953
13270	96.866076
13275	96.861908
13280	96.857107
13285	96.851315
13290	96.844494
13295	96.838076
13300	96.833269
13305	96.829372
13310	96.826574
13315	96.825416
13320	96.826428
13325	96.829294
13330	96.833143
13335	96.837228
13340	96.842267
13345	96.847706
13350	96.852472
13355	96.855944
13360	96.858651
13365	96.860682
13370	96.862072
13375	96.862361
13380	96.862024
13385	96.861968
13390	96.862788
13395	96.863959
13400	96.865721
13405	96.868416
13410	96.872457
13415	96.877474
13420	96.882689
13425	96.887511
13430	96.892596
13435	96.897394
13440	96.901039
13445	96.903084
13450	96.903966
13455	96.903783
13460	96.902603
13465	96.900115
13470	96.896619
13475	96.89271
13480	96.888826
13485	96.884662
13490	96.880244
13495	96.875664
13500	96.871062
13505	96.866357
13510	96.86128
13515	96.855559
13520	96.849062
13525	96.842095
13530	96.835031
13535	96.827913
13540	96.820251
13545	96.81299
13550	96.807189
13555	96.802903
13560	96.79973
13565	96.798197
13570	96.798837
13575	96.801901
13580	96.806798
13585	96.812809
13590	96.819628
13595	96.827982
13600	96.836892
13605	96.845199
13610	96.852702
13615	96.859943
13620	96.866379
13625	96.871476
13630	96.875283
13635	96.877983
13640	96.8796
13645	96.880148
13650	96.879589
13655	96.877977
13660	96.87538
13665	96.871792
13670	96.867155
13675	96.86162
13680	96.855344
13685	96.848115
13690	96.839991
13695	96.831484
13700	96.823056
13705	96.814308
13710	96.805434
13715	96.796968
13720	96.789335
13725	96.78227
13730	96.775747
13735	96.769817
13740	96.764568
13745	96.76001
13750	96.755938
13755	96.752145
13760	96.748492
13765	96.74511
13770	96.742183
13775	96.739881
13780	96.737908
13785	96.736446
13790	96.736004
13795	96.737031
13800	96.739322
13805	96.74281
13810	96.747547
13815	96.753693
13820	96.761492
13825	96.770334
13830	96.779529
13835	96.788927
13840	96.799085
13845	96.8092
13850	96.818411
13855	96.826614
13860	96.834241
13865	96.840853
13870	96.846009
13875	96.84968
13880	96.852056
13885	96.853149
13890	96.852962
13895	96.85132
13900	96.848389
13905	96.844479
13910	96.839829
13915	96.834017
13920	96.82738
13925	96.820505
13930	96.81379
13935	96.806666
13940	96.799555
13945	96.79308
13950	96.787662
13955	96.782899
13960	96.778887
13965	96.775798
13970	96.773847
13975	96.773045
13980	96.772994
13985	96.773281
13990	96.773874
13995	96.775088
14000	96.776419
14005	96.777337
14010	96.77771
14015	96.777835
14020	96.777555
14025	96.776705
14030	96.775165
14035	96.773037
14040	96.770498
14045	96.767721
14050	96.764596
14055	96.761094
14060	96.757493
14065	96.754065
14070	96.75069
14075	96.747318
14080	96.744211
14085	96.741629
14090	96.739512
14095	96.737786
14100	96.736555
14105	96.735926
14110	96.735999
14115	96.73666
14120	96.73772
14125	96.738997
14130	96.740693
14135	96.742747
14140	96.744836
14145	96.746642
14150	96.748223
14155	96.749681
14160	96.750963
14165	96.752014
14170	96.75268
14175	96.753089
14180	96.753512
14185	96.754216
14190	96.755116
14195	96.756148
14200	96.757433
14205	96.759093
14210	96.761263
14215	96.763813
14220	96.766505
14225	96.769101
14230	96.771701
14235	96.774364
14240	96.776875
14245	96.77902
14250	96.780756
14255	96.782197
14260	96.78336
14265	96.784263
14270	96.78494
14275	96.78538
14280	96.785522
14285	96.785306
14290	96.784819
14295	96.784125
14300	96.78295
14305	96.781018
14310	96.778163
14315	96.774543
14320	96.770236
14325	96.765315
14330	96.759621
14335	96.752825
14340	96.745656
14345	96.738909
14350	96.733054
14355	96.727307
14360	96.722163
14365	96.718309
14370	96.716379
14375	96.716285
14380	96.717575
14385	96.719824
14390	96.722704
14395	96.727089
14400	96.732385
14405	96.737425
14410	96.741074
14415	96.743823
14420	96.745908
14425	96.746788
14430	96.745924
14435	96.742889
14440	96.738065
14445	96.732118
14450	96.725714
14455	96.718785
14460	96.710765
14465	96.702549
14470	96.69506
14475	96.688874
14480	96.683347
14485	96.678545
14490	96.674621
14495	96.671761
14500	96.670143
14505	96.669401
14510	96.669087
14515	96.668788
14520	96.668758
14525	96.669034
14530	96.669405
14535	96.669664
14540	96.669618
14545	96.669429
14550	96.669408
14555	96.669864
14560	96.670831
14565	96.672037
14570	96.673771
14575	96.676343
14580	96.680013
14585	96.684671
14590	96.690154
14595	96.696314
14600	96.703032
14605	96.710596
14610	96.718837
14615	96.727395
14620	96.735913
14625	96.744427
14630	96.753105
14635	96.761836
14640	96.77051
14645	96.779036
14650	96.787457
14655	96.795871
14660	96.804376
14665	96.813075
14670	96.822026
14675	96.831076
14680	96.840049
14685	96.848779
14690	96.85769
14695	96.866632
14700	96.874992
14705	96.882161
14710	96.888067
14715	96.893207
14720	96.89715
14725	96.899442
14730	96.899662
14735	96.897847
14740	96.894382
14745	96.889652
14750	96.884021
14755	96.876612
14760	96.867724
14765	96.8586
14770	96.850473
14775	96.843571
14780	96.836818
14785	96.831065
14790	96.827226
14795	96.826135
14800	96.827594
14805	96.831083
14810	96.836156
14815	96.842367
14820	96.85047
14825	96.860473
14830	96.871092
14835	96.881047
14840	96.889622
14845	96.897895
14850	96.905566
14855	96.912181
14860	96.917267
14865	96.920266
14870	96.921837
14875	96.922992
14880	96.924734
14885	96.926931
14890	96.928547
14895	96.930934
14900	96.935502
14905	96.943485
14910	96.954104
14915	96.967082
14920	96.982532
14925	97.000565
14930	97.022867
14935	97.049529
14940	97.077262
14945	97.102779
14950	97.123892
14955	97.144805
14960	97.163454
14965	97.176321
14970	97.179905
14975	97.171855
14980	97.154483
14985	97.131278
14990	97.105717
14995	97.079959
15000	97.049652
15005	97.017012
15010	96.985556
15015	96.958786
15020	96.937
15025	96.918136
15030	96.90219
15035	96.88916
15040	96.87921
15045	96.873033
15050	96.869783
15055	96.868372
15060	96.867719
15065	96.868105
15070	96.870226
15075	96.873216
15080	96.876213
15085	96.878475
15090	96.880482
15095	96.882432
15100	96.884322
15105	96.886151
15110	96.887682
15115	96.888812
15120	96.890054
15125	96.89193
15130	96.894924
15135	96.898795
15140	96.903387
15145	96.908736
15150	96.914874
15155	96.922045
15160	96.930533
15165	96.939682
15170	96.948785
15175	96.957153
15180	96.965276
15185	96.973356
15190	96.980805
15195	96.987034
15200	96.991517
15205	96.994391
15210	96.996048
15215	96.996857
15220	96.997185
15225	96.996811
15230	96.995329
15235	96.993451
15240	96.991904
15245	96.991388
15250	96.991721
15255	96.992581
15260	96.993877
15265	96.995522
15270	96.997635
15275	97.00079
15280	97.004293
15285	97.007307
15290	97.008998
15295	97.009269
15300	97.008735
15305	97.007191
15310	97.004421
15315	97.000185
15320	96.993788
15325	96.985767
15330	96.977142
15335	96.968932
15340	96.961706
15345	96.954018
15350	96.946598
15355	96.940569
15360	96.937049
15365	96.936547
15370	96.938259
15375	96.942016
15380	96.947676
15385	96.955106
15390	96.965068
15395	96.977419
15400	96.991074
15405	97.004952
15410	97.018131
15415	97.031661
15420	97.045482
15425	97.05896
15430	97.071465
15435	97.082497
15440	97.092372
15445	97.101383
15450	97.109776
15455	97.1178
15460	97.125444
15465	97.13244
15470	97.139025
15475	97.145446
15480	97.151951
15485	97.158789
15490	97.165779
15495	97.172536
15500	97.178674
15505	97.183846
15510	97.188525
15515	97.192682
15520	97.195901
15525	97.197767
15530	97.197881
15535	97.196214
15540	97.193133
15545	97.189022
15550	97.184265
15555	97.178928
15560	97.172193
15565	97.164715
15570	97.157324
15575	97.150848
15580	97.145612
15585	97.140858
15590	97.136748
15595	97.133505
15600	97.131348
15605	97.130639
15610	97.131347
15615	97.132874
15620	97.134618
15625	97.135982
15630	97.137299
15635	97.138945
15640	97.140388
15645	97.141099
15650	97.140553
15655	97.138608
15660	97.135623
15665	97.131936
15670	97.127882
15675	97.123752
15680	97.118698
15685	97.112936
15690	97.107375
15695	97.102921
15700	97.100384
15705	97.098913
15710	97.098434
15715	97.099433
15720	97.102396
15725	97.107802
15730	97.115777
15735	97.125862
15740	97.137544
15745	97.150311
15750	97.16385
15755	97.179334
15760	97.196197
15765	97.213377
15770	97.22982
15775	97.24473
15780	97.259311
15785	97.273391
15790	97.286355
15795	97.297591
15800	97.30655
15805	97.313405
15810	97.318535
15815	97.322269
15820	97.324938
15825	97.32669
15830	97.326665
15835	97.325362
15840	97.323585
15845	97.322134
15850	97.321629
15855	97.321255
15860	97.321044
15865	97.321322
15870	97.322411
15875	97.324648
15880	97.328215
15885	97.332703
15890	97.337624
15895	97.342494
15900	97.346942
15905	97.351784
15910	97.3568
15915	97.361371
15920	97.364883
15925	97.366765
15930	97.367321
15935	97.366795
15940	97.365224
15945	97.362641
15950	97.359062
15955	97.353992
15960	97.347641
15965	97.340583
15970	97.333388
15975	97.326616
15980	97.31984
15985	97.312821
15990	97.305922
15995	97.299503
16000	97.293924
16005	97.289232
16010	97.28518
16015	97.281687
16020	97.27867
16025	97.276049
16030	97.273842
16035	97.272134
16040	97.270855
16045	97.269931
16050	97.269288
16055	97.268837
16060	97.268566
16065	97.268607
16070	97.269101
16075	97.270186
16080	97.271964
16085	97.274341
16090	97.277269
16095	97.280719
16100	97.284662
16105	97.289117
16110	97.294431
16115	97.300368
16120	97.306546
16125	97.312585
16130	97.318129
16135	97.323546
16140	97.328932
16145	97.33404
16150	97.338625
16155	97.342443
16160	97.345318
16165	97.347411
16170	97.348979
16175	97.350277
16180	97.351562
16185	97.352815
16190	97.353659
16195	97.354365
16200	97.355232
16205	97.356559
16210	97.358611
16215	97.361311
16220	97.364441
16225	97.367792
16230	97.371159
16235	97.374366
16240	97.377886
16245	97.381629
16250	97.385188
16255	97.388155
16260	97.390126
16265	97.391055
16270	97.391242
16275	97.390743
16280	97.389617
16285	97.387919
16290	97.385508
16295	97.382014
16300	97.377878
16305	97.373597
16310	97.369667
16315	97.366485
16320	97.36341
16325	97.360479
16330	97.358026
16335	97.356381
16340	97.355876
16345	97.356555
16350	97.358185
16355	97.360656
16360	97.363855
16365	97.36767
16370	97.37215
16375	97.377588
16380	97.383724
16385	97.390254
16390	97.396879
16395	97.403349
16400	97.410089
16405	97.417076
16410	97.424056
16415	97.430774
16420	97.436979
16425	97.442758
16430	97.448356
16435	97.453603
16440	97.458328
16445	97.462361
16450	97.46557
16455	97.468075
16460	97.469937
16465	97.471195
16470	97.471886
16475	97.472046
16480	97.471365
16485	97.469877
16490	97.467934
16495	97.465887
16500	97.464086
16505	97.462616
16510	97.460955
16515	97.459328
16520	97.458021
16525	97.45732
16530	97.457507
16535	97.458658
16540	97.460548
16545	97.462935
16550	97.465575
16555	97.468228
16560	97.470991
16565	97.474362
16570	97.477921
16575	97.481207
16580	97.48376
16585	97.485144
16590	97.485521
16595	97.485142
16600	97.48412
16605	97.482567
16610	97.480594
16615	97.477939
16620	97.474075
16625	97.469659
16630	97.4654
16635	97.462004
16640	97.460128
16645	97.459064
16650	97.45859
16655	97.459063
16660	97.460839
16665	97.464272
16670	97.469771
16675	97.477426
16680	97.486658
16685	97.496858
16690	97.507421
16695	97.517757
16700	97.528868
16705	97.541013
16710	97.553269
16715	97.564718
16720	97.574445
16725	97.581831
16730	97.587884
16735	97.592638
16740	97.595905
16745	97.597496
16750	97.597223
16755	97.594643
16760	97.589737
16765	97.583155
16770	97.575551
16775	97.567574
16780	97.559761
16785	97.550983
16790	97.541314
16795	97.531458
16800	97.52212
16805	97.513999
16810	97.507448
16815	97.501707
16820	97.496782
16825	97.492761
16830	97.48973
16835	97.487777
16840	97.487208
16845	97.488001
16850	97.489745
16855	97.492028
16860	97.494441
16865	97.496647
16870	97.499256
16875	97.502263
16880	97.505354
16885	97.508213
16890	97.510528
16895	97.512067
16900	97.51303
16905	97.513574
16910	97.513841
16915	97.513968
16920	97.514094
16925	97.514002
16930	97.513449
16935	97.512782
16940	97.51235
16945	97.5125
16950	97.513567
16955	97.515353
16960	97.517668
16965	97.520539
16970	97.523993
16975	97.528056
16980	97.532817
16985	97.53868
16990	97.54536
16995	97.552424
17000	97.559438
17005	97.565973
17010	97.571928
17015	97.57806
17020	97.584073
17025	97.58957
17030	97.594153
17035	97.597428
17040	97.599221
17045	97.59984
17050	97.599452
17055	97.598214
17060	97.596285
17065	97.593823
17070	97.590373
17075	97.585787
17080	97.580564
17085	97.5752
17090	97.570193
17095	97.566012
17100	97.562236
17105	97.558636
17110	97.555354
17115	97.55253
17120	97.550306
17125	97.548846
17130	97.548457
17135	97.548869
17140	97.549678
17145	97.550481
17150	97.550875
17155	97.550618
17160	97.550418
17165	97.550146
17170	97.549473
17175	97.548072
17180	97.545616
17185	97.541811
17190	97.536721
17195	97.530642
17200	97.523871
17205	97.516703
17210	97.509433
17215	97.501968
17220	97.49348
17225	97.484503
17230	97.475676
17235	97.467639
17240	97.461028
17245	97.45598
17250	97.45163
17255	97.448179
17260	97.445899
17265	97.44506
17270	97.445931
17275	97.44878
17280	97.453555
17285	97.459905
17290	97.467472
17295	97.475903
17300	97.484844
17305	97.494525
17310	97.505685
17315	97.517752
17320	97.530115
17325	97.542165
17330	97.553296
17335	97.563548
17340	97.573786
17345	97.58367
17350	97.592821
17355	97.600858
17360	97.607404
17365	97.612297
17370	97.615879
17375	97.618256
17380	97.619515
17385	97.619748
17390	97.619042
17395	97.617225
17400	97.613893
17405	97.609444
17410	97.604307
17415	97.598913
17420	97.59369
17425	97.588686
17430	97.583127
17435	97.577309
17440	97.57161
17445	97.566407
17450	97.562074
17455	97.558834
17460	97.556272
17465	97.554337
17470	97.553036
17475	97.552379
17480	97.552373
17485	97.553092
17490	97.554836
17495	97.557386
17500	97.56044
17505	97.563698
17510	97.566861
17515	97.569709
17520	97.572786
17525	97.57606
17530	97.579283
17535	97.582205
17540	97.58458
17545	97.586174
17550	97.587124
17555	97.587573
17560	97.587553
17565	97.587096
17570	97.586232
17575	97.584994
17580	97.583211
17585	97.580854
17590	97.57809
17595	97.575087
17600	97.572013
17605	97.569032
17610	97.566109
17615	97.563034
17620	97.559881
17625	97.556732
17630	97.553663
17635	97.550756
17640	97.548049
17645	97.545462
17650	97.542978
17655	97.540593
17660	97.538299
17665	97.53609
17670	97.53396
17675	97.531905
17680	97.529931
17685	97.528048
17690	97.526266
17695	97.524594
17700	97.52304
17705	97.521547
17710	97.52012
17715	97.518804
17720	97.517644
17725	97.516684
17730	97.51597
17735	97.515443
17740	97.51502
17745	97.514781
17750	97.514806
17755	97.515177
17760	97.515973
17765	97.51719
17770	97.518591
17775	97.520283
17780	97.522416
17785	97.525136
17790	97.52859
17795	97.532902
17800	97.537811
17805	97.543291
17810	97.549463
17815	97.556448
17820	97.564365
17825	97.573334
17830	97.583452
17835	97.594653
17840	97.606797
17845	97.619747
17850	97.633367
17855	97.64752
17860	97.662253
17865	97.67815
17870	97.694903
17875	97.712093
17880	97.729304
17885	97.746119
17890	97.762153
17895	97.778111
17900	97.794177
17905	97.809961
17910	97.825076
17915	97.839139
17920	97.851764
17925	97.8629
17930	97.873067
17935	97.882191
17940	97.890172
17945	97.896912
17950	97.902311
17955	97.906266
17960	97.908709
17965	97.909751
17970	97.909536
17975	97.908206
17980	97.905905
17985	97.902773
17990	97.898631
17995	97.893188
18000	97.886701
18005	97.879434
18010	97.871651
18015	97.863613
18020	97.855483
18025	97.846603
18030	97.837071
18035	97.827217
18040	97.817371
18045	97.807862
18050	97.799017
18055	97.79065
18060	97.782277
18065	97.774146
18070	97.766513
18075	97.75963
18080	97.753752
18085	97.749093
18090	97.745411
18095	97.742599
18100	97.740646
18105	97.739541
18110	97.739274
18115	97.739833
18120	97.74135
18125	97.74398
18130	97.747522
18135	97.751764
18140	97.756495
18145	97.761506
18150	97.766608
18155	97.772093
18160	97.778049
18165	97.784368
18170	97.790944
18175	97.797669
18180	97.804437
18185	97.811174
18190	97.817962
18195	97.824854
18200	97.831898
18205	97.839141
18210	97.846627
18215	97.854405
18220	97.862595
18225	97.871188
18230	97.880042
18235	97.889015
18240	97.897965
18245	97.906752
18250	97.91532
18255	97.92436
18260	97.9337
18265	97.942895
18270	97.951502
18275	97.959077
18280	97.96518
18285	97.969756
18290	97.973594
18295	97.976511
18300	97.978251
18305	97.978558
18310	97.977178
18315	97.973858
18320	97.968325
18325	97.960721
18330	97.951412
18335	97.940766
18340	97.929148
18345	97.916921
18350	97.904363
18355	97.890326
18360	97.874852
18365	97.858607
18370	97.842255
18375	97.826456
18380	97.811871
18385	97.798848
18390	97.786257
18395	97.774154
18400	97.762821
18405	97.752543
18410	97.743601
18415	97.736277
18420	97.730807
18425	97.727078
18430	97.72481
18435	97.723725
18440	97.723543
18445	97.723987
18450	97.72478
18455	97.726358
18460	97.729174
18465	97.732805
18470	97.736828
18475	97.740821
18480	97.744366
18485	97.747057
18490	97.749344
18495	97.751525
18500	97.753455
18505	97.754989
18510	97.755982
18515	97.75629
18520	97.755766
18525	97.754317
18530	97.752086
18535	97.749261
18540	97.746026
18545	97.742566
18550	97.739065
18555	97.735607
18560	97.731589
18565	97.727129
18570	97.722538
18575	97.718124
18580	97.714195
18585	97.711057
18590	97.708865
18595	97.707043
18600	97.705632
18605	97.70479
18610	97.704672
18615	97.705433
18620	97.70723
18625	97.710215
18630	97.714393
18635	97.719586
18640	97.725612
18645	97.732287
18650	97.73943
18655	97.746858
18660	97.754663
18665	97.763488
18670	97.773028
18675	97.782899
18680	97.792718
18685	97.802104
18690	97.810676
18695	97.818351
18700	97.825774
18705	97.832862
18710	97.839474
18715	97.84547
18720	97.85071
18725	97.855054
18730	97.858324
18735	97.860446
18740	97.861657
18745	97.862206
18750	97.862341
18755	97.862309
18760	97.862359
18765	97.86251
18770	97.862218
18775	97.861623
18780	97.860924
18785	97.860322
18790	97.860014
18795	97.8602
18800	97.861082
18805	97.862694
18810	97.864797
18815	97.86714
18820	97.869471
18825	97.871539
18830	97.873096
18835	97.874092
18840	97.875324
18845	97.876587
18850	97.877502
18855	97.877692
18860	97.876783
18865	97.8744
18870	97.870229
18875	97.864562
18880	97.857608
18885	97.84949
18890	97.840327
18895	97.830241
18900	97.819351
18905	97.807712
18910	97.794392
18915	97.779526
18920	97.763723
18925	97.747588
18930	97.731728
18935	97.716745
18940	97.703222
18945	97.690238
18950	97.677289
18955	97.664791
18960	97.653161
18965	97.642813
18970	97.634159
18975	97.62761
18980	97.623293
18985	97.620851
18990	97.620059
18995	97.620693
19000	97.622528
19005	97.625342
19010	97.628913
19015	97.633447
19020	97.639753
19025	97.647402
19030	97.655898
19035	97.664744
19040	97.673448
19045	97.681517
19050	97.688657
19055	97.695786
19060	97.702919
19065	97.709847
19070	97.71636
19075	97.722251
19080	97.727312
19085	97.731343
19090	97.734399
19095	97.73664
19100	97.738165
19105	97.739075
19110	97.739469
19115	97.739446
19120	97.739105
19125	97.738321
19130	97.736895
19135	97.734953
19140	97.732624
19145	97.730036
19150	97.727318
19155	97.724598
19160	97.721924
19165	97.719054
19170	97.716005
19175	97.712831
19180	97.709584
19185	97.706318
19190	97.703087
19195	97.699938
19200	97.696801
19205	97.693642
19210	97.690477
19215	97.687323
19220	97.684194
19225	97.681107
19230	97.678077
19235	97.675117
19240	97.67222
19245	97.66937
19250	97.66655
19255	97.663743
19260	97.660932
19265	97.658101
19270	97.655238
19275	97.652378
19280	97.64952
19285	97.646657
19290	97.643782
19295	97.640886
19300	97.637963
19305	97.635003
19310	97.631899
19315	97.628615
19320	97.625256
19325	97.621926
19330	97.61873
19335	97.61577
19340	97.61315
19345	97.610878
19350	97.608572
19355	97.606327
19360	97.604322
19365	97.60273
19370	97.601729
19375	97.601491
19380	97.602191
19385	97.603733
19390	97.605936
19395	97.608803
19400	97.612337
19405	97.616541
19410	97.62142
19415	97.626975
19420	97.633292
19425	97.640744
19430	97.649142
19435	97.658212
19440	97.667677
19445	97.677264
19450	97.686699
19455	97.695708
19460	97.704652
19465	97.714017
19470	97.723521
19475	97.732882
19480	97.741818
19485	97.750049
19490	97.757293
19495	97.763316
19500	97.768411
19505	97.772728
19510	97.77631
19515	97.779197
19520	97.781431
19525	97.783052
19530	97.784103
19535	97.784394
19540	97.783543
19545	97.781828
19550	97.779558
19555	97.777038
19560	97.774573
19565	97.772468
19570	97.77102
19575	97.769775
19580	97.768437
19585	97.767179
19590	97.766175
19595	97.765598
19600	97.765621
19605	97.766417
19610	97.768159
19615	97.770913
19620	97.774496
19625	97.778703
19630	97.783327
19635	97.788165
19640	97.793011
19645	97.797661
19650	97.802278
19655	97.807549
19660	97.813181
19665	97.81883
19670	97.824151
19675	97.8288
19680	97.832435
19685	97.834716
19690	97.835821
19695	97.836156
19700	97.835695
19705	97.834413
19710	97.832286
19715	97.829287
19720	97.825393
19725	97.820554
19730	97.814225
19735	97.806487
19740	97.797734
19745	97.788363
19750	97.778768
19755	97.769343
19760	97.760478
19765	97.752366
19770	97.743815
19775	97.73491
19780	97.726085
19785	97.717771
19790	97.710399
19795	97.7044
19800	97.700202
19805	97.697986
19810	97.697023
19815	97.697273
19820	97.698791
19825	97.701633
19830	97.705853
19835	97.711506
19840	97.718646
19845	97.727517
19850	97.738433
19855	97.751064
19860	97.765053
19865	97.780045
19870	97.795687
19875	97.811627
19880	97.827511
19885	97.843725
19890	97.861124
19895	97.879313
19900	97.897876
19905	97.9164
19910	97.934472
19915	97.95168
19920	97.967614
19925	97.982574
19930	97.997203
19935	98.011334
19940	98.024796
19945	98.037418
19950	98.049031
19955	98.059465
19960	98.068552
19965	98.075919
19970	98.081554
19975	98.085857
19980	98.08923
19985	98.092071
19990	98.094777
19995	98.097746
20000	98.101371