\relax 
\providecommand\hyper@newdestlabel[2]{}
\providecommand\babel@aux[2]{}
\@nameuse{bbl@beforestart}
\providecommand\HyperFirstAtBeginDocument{\AtBeginDocument}
\HyperFirstAtBeginDocument{\ifx\hyper@anchor\@undefined
\global\let\oldcontentsline\contentsline
\gdef\contentsline#1#2#3#4{\oldcontentsline{#1}{#2}{#3}}
\global\let\oldnewlabel\newlabel
\gdef\newlabel#1#2{\newlabelxx{#1}#2}
\gdef\newlabelxx#1#2#3#4#5#6{\oldnewlabel{#1}{{#2}{#3}}}
\AtEndDocument{\ifx\hyper@anchor\@undefined
\let\contentsline\oldcontentsline
\let\newlabel\oldnewlabel
\fi}
\fi}
\global\let\hyper@last\relax 
\gdef\HyperFirstAtBeginDocument#1{#1}
\providecommand\HyField@AuxAddToFields[1]{}
\providecommand\HyField@AuxAddToCoFields[2]{}
\abx@aux@refcontext{nyt/global//global/global}
\babel@aux{english}{}
\@writefile{toc}{\contentsline {section}{\numberline {1}Introduction}{2}{section.1}\protected@file@percent }
\@writefile{toc}{\contentsline {section}{\numberline {2}System configuration and Installation}{2}{section.2}\protected@file@percent }
\@writefile{toc}{\contentsline {subsection}{\numberline {2.1}Screen resolution issues}{2}{subsection.2.1}\protected@file@percent }
\@writefile{toc}{\contentsline {subsection}{\numberline {2.2}Using Anaconda (recommended)}{2}{subsection.2.2}\protected@file@percent }
\@writefile{toc}{\contentsline {subsubsection}{\numberline {2.2.1}Creating environment using the provided .yml file}{2}{subsubsection.2.2.1}\protected@file@percent }
\@writefile{lof}{\contentsline {figure}{\numberline {1}{\ignorespaces Open the Anaconda prompt in Windows 10.}}{3}{figure.1}\protected@file@percent }
\newlabel{fig:anacondaPrompt}{{1}{3}{Open the Anaconda prompt in Windows 10}{figure.1}{}}
\newlabel{lst:cdWindows}{{2.2.1}{3}{Creating environment using the provided .yml file}{subsubsection.2.2.1}{}}
\@writefile{toc}{\contentsline {section}{\numberline {3}Running the CryoNIRSP IPC}{3}{section.3}\protected@file@percent }
\@writefile{toc}{\contentsline {section}{\numberline {4}How to use the IPC}{4}{section.4}\protected@file@percent }
\@writefile{lof}{\contentsline {figure}{\numberline {2}{\ignorespaces Welcome to the CryoNIRSP IPC.}}{4}{figure.2}\protected@file@percent }
\newlabel{fig:welcom}{{2}{4}{Welcome to the CryoNIRSP IPC}{figure.2}{}}
\@writefile{toc}{\contentsline {subsection}{\numberline {4.1}Input and Output tabs}{4}{subsection.4.1}\protected@file@percent }
\newlabel{sec:tabs}{{4.1}{4}{Input and Output tabs}{subsection.4.1}{}}
\@writefile{toc}{\contentsline {subsubsection}{\numberline {4.1.1}Common}{5}{subsubsection.4.1.1}\protected@file@percent }
\@writefile{lof}{\contentsline {figure}{\numberline {3}{\ignorespaces The Common tab is used to control settings that affect the spectrograph and the context imager.}}{5}{figure.3}\protected@file@percent }
\newlabel{fig:tabcommon}{{3}{5}{The Common tab is used to control settings that affect the spectrograph and the context imager}{figure.3}{}}
\@writefile{toc}{\contentsline {paragraph}{Observational Settings}{5}{section*.2}\protected@file@percent }
\newlabel{txt:occulter}{{4.1.1}{6}{Observational Settings}{section*.2}{}}
\@writefile{toc}{\contentsline {paragraph}{CryoNIRSP Settings}{6}{section*.3}\protected@file@percent }
\newlabel{txt:modulatorMode}{{4.1.1}{6}{CryoNIRSP Settings}{section*.3}{}}
\@writefile{toc}{\contentsline {subsubsection}{\numberline {4.1.2}Spectrograph}{6}{subsubsection.4.1.2}\protected@file@percent }
\@writefile{toc}{\contentsline {paragraph}{Wavelength}{6}{section*.4}\protected@file@percent }
\@writefile{toc}{\contentsline {paragraph}{Camera}{6}{section*.5}\protected@file@percent }
\@writefile{lof}{\contentsline {figure}{\numberline {4}{\ignorespaces The Spectrograph tab controls the configuration of the spectrograph.}}{7}{figure.4}\protected@file@percent }
\newlabel{fig:tabsp}{{4}{7}{The Spectrograph tab controls the configuration of the spectrograph}{figure.4}{}}
\@writefile{toc}{\contentsline {paragraph}{Scanning}{8}{section*.6}\protected@file@percent }
\@writefile{toc}{\contentsline {paragraph}{Slit}{8}{section*.7}\protected@file@percent }
\@writefile{toc}{\contentsline {paragraph}{Configuration}{8}{section*.8}\protected@file@percent }
\@writefile{toc}{\contentsline {subsubsection}{\numberline {4.1.3}Context Imager}{8}{subsubsection.4.1.3}\protected@file@percent }
\@writefile{lof}{\contentsline {figure}{\numberline {5}{\ignorespaces The Context Imager tab controls the configuration of the context imager.}}{9}{figure.5}\protected@file@percent }
\newlabel{fig:tabci}{{5}{9}{The Context Imager tab controls the configuration of the context imager}{figure.5}{}}
\@writefile{toc}{\contentsline {paragraph}{Scanning}{9}{section*.9}\protected@file@percent }
\@writefile{toc}{\contentsline {paragraph}{Camera}{9}{section*.10}\protected@file@percent }
\@writefile{toc}{\contentsline {paragraph}{Wavelength}{10}{section*.11}\protected@file@percent }
\@writefile{toc}{\contentsline {paragraph}{Polarimetry}{10}{section*.12}\protected@file@percent }
\@writefile{toc}{\contentsline {paragraph}{Configuration}{11}{section*.13}\protected@file@percent }
\@writefile{toc}{\contentsline {subsubsection}{\numberline {4.1.4}SP output}{11}{subsubsection.4.1.4}\protected@file@percent }
\@writefile{lof}{\contentsline {figure}{\numberline {6}{\ignorespaces Calculated spectrograph metrics part 1.}}{11}{figure.6}\protected@file@percent }
\newlabel{fig:tabspout1}{{6}{11}{Calculated spectrograph metrics part 1}{figure.6}{}}
\@writefile{lof}{\contentsline {figure}{\numberline {7}{\ignorespaces Calculated spectrograph metrics part 2.}}{12}{figure.7}\protected@file@percent }
\newlabel{fig:tabspout2}{{7}{12}{Calculated spectrograph metrics part 2}{figure.7}{}}
\@writefile{toc}{\contentsline {subsubsection}{\numberline {4.1.5}CI output}{14}{subsubsection.4.1.5}\protected@file@percent }
\@writefile{lof}{\contentsline {figure}{\numberline {8}{\ignorespaces Calculated context imager metrics part.}}{15}{figure.8}\protected@file@percent }
\newlabel{fig:tabciout}{{8}{15}{Calculated context imager metrics part}{figure.8}{}}
\@writefile{toc}{\contentsline {subsection}{\numberline {4.2}Map area}{16}{subsection.4.2}\protected@file@percent }
\newlabel{sec:map}{{4.2}{16}{Map area}{subsection.4.2}{}}
\@writefile{lof}{\contentsline {figure}{\numberline {9}{\ignorespaces The map area of the IPC GUI. The zoomed in map is showing the deployed occulter.}}{16}{figure.9}\protected@file@percent }
\newlabel{fig:map}{{9}{16}{The map area of the IPC GUI. The zoomed in map is showing the deployed occulter}{figure.9}{}}
\@writefile{toc}{\contentsline {subsection}{\numberline {4.3}Plot area}{17}{subsection.4.3}\protected@file@percent }
\newlabel{sec:plot}{{4.3}{17}{Plot area}{subsection.4.3}{}}
\@writefile{toc}{\contentsline {subsubsection}{\numberline {4.3.1}Coronal relative Flux spectrum}{17}{subsubsection.4.3.1}\protected@file@percent }
\@writefile{lof}{\contentsline {figure}{\numberline {10}{\ignorespaces The relative coronal flux model components.}}{17}{figure.10}\protected@file@percent }
\newlabel{fig:plotRelativeCorona}{{10}{17}{The relative coronal flux model components}{figure.10}{}}
\@writefile{toc}{\contentsline {subsubsection}{\numberline {4.3.2}Coronal absolute Flux spectrum}{17}{subsubsection.4.3.2}\protected@file@percent }
\@writefile{lof}{\contentsline {figure}{\numberline {11}{\ignorespaces The absolute coronal flux model components.}}{17}{figure.11}\protected@file@percent }
\newlabel{fig:plotAbsoluteCorona}{{11}{17}{The absolute coronal flux model components}{figure.11}{}}
\@writefile{toc}{\contentsline {subsubsection}{\numberline {4.3.3}Corona low resolution SP filter \& spectrum}{18}{subsubsection.4.3.3}\protected@file@percent }
\@writefile{lof}{\contentsline {figure}{\numberline {12}{\ignorespaces The spectrograph low resolution filter and coronal flux spectrum.}}{18}{figure.12}\protected@file@percent }
\newlabel{fig:plotSpLowRes}{{12}{18}{The spectrograph low resolution filter and coronal flux spectrum}{figure.12}{}}
\@writefile{toc}{\contentsline {subsubsection}{\numberline {4.3.4}Corona high resolution SP filter \& spectrum}{18}{subsubsection.4.3.4}\protected@file@percent }
\@writefile{lof}{\contentsline {figure}{\numberline {13}{\ignorespaces The spectrograph high resolution filter and coronal flux spectrum.}}{18}{figure.13}\protected@file@percent }
\newlabel{fig:plotSpHighRes}{{13}{18}{The spectrograph high resolution filter and coronal flux spectrum}{figure.13}{}}
\@writefile{toc}{\contentsline {subsubsection}{\numberline {4.3.5}Corona high resolution CI filter \& spectrum}{19}{subsubsection.4.3.5}\protected@file@percent }
\@writefile{lof}{\contentsline {figure}{\numberline {14}{\ignorespaces The context imager high resolution filter and coronal flux spectrum.}}{19}{figure.14}\protected@file@percent }
\newlabel{fig:plotCiHighRes}{{14}{19}{The context imager high resolution filter and coronal flux spectrum}{figure.14}{}}
\@writefile{toc}{\contentsline {subsubsection}{\numberline {4.3.6}SP coronal line counts in filter passband}{19}{subsubsection.4.3.6}\protected@file@percent }
\@writefile{lof}{\contentsline {figure}{\numberline {15}{\ignorespaces The estimated number of electrons per pixel per integrated coronal emission line and the matching background.}}{19}{figure.15}\protected@file@percent }
\newlabel{fig:plotSpActiveCounts}{{15}{19}{The estimated number of electrons per pixel per integrated coronal emission line and the matching background}{figure.15}{}}
\@writefile{toc}{\contentsline {subsubsection}{\numberline {4.3.7}SP velocity sensitivity for lines in filter passband}{19}{subsubsection.4.3.7}\protected@file@percent }
\@writefile{lof}{\contentsline {figure}{\numberline {16}{\ignorespaces Estimated velocity sensitivity of selected coronal emission lines.}}{20}{figure.16}\protected@file@percent }
\newlabel{fig:plotSpActiveV}{{16}{20}{Estimated velocity sensitivity of selected coronal emission lines}{figure.16}{}}
\@writefile{toc}{\contentsline {subsubsection}{\numberline {4.3.8}SP magnetic sensitivity for lines in filter passband}{20}{subsubsection.4.3.8}\protected@file@percent }
\@writefile{lof}{\contentsline {figure}{\numberline {17}{\ignorespaces Estimated magnetic sensitivity of selected coronal emission lines.}}{20}{figure.17}\protected@file@percent }
\newlabel{fig:plotSpActiveB}{{17}{20}{Estimated magnetic sensitivity of selected coronal emission lines}{figure.17}{}}
\@writefile{toc}{\contentsline {subsubsection}{\numberline {4.3.9}Disk Flux spectrum}{20}{subsubsection.4.3.9}\protected@file@percent }
\@writefile{toc}{\contentsline {subsubsection}{\numberline {4.3.10}Disk low resolution SP filter \& spectrum}{20}{subsubsection.4.3.10}\protected@file@percent }
\@writefile{toc}{\contentsline {subsubsection}{\numberline {4.3.11}Disk high resolution SP filter \& spectrum}{20}{subsubsection.4.3.11}\protected@file@percent }
\@writefile{lof}{\contentsline {figure}{\numberline {18}{\ignorespaces The absolute disk flux spectrum.}}{21}{figure.18}\protected@file@percent }
\newlabel{fig:plotAbsoluteDisk}{{18}{21}{The absolute disk flux spectrum}{figure.18}{}}
\@writefile{lof}{\contentsline {figure}{\numberline {19}{\ignorespaces The spectrograph low resolution filter and disk flux spectrum.}}{21}{figure.19}\protected@file@percent }
\newlabel{fig:plotSpLowResDisk}{{19}{21}{The spectrograph low resolution filter and disk flux spectrum}{figure.19}{}}
\@writefile{lof}{\contentsline {figure}{\numberline {20}{\ignorespaces The spectrograph high resolution filter and disk flux spectrum.}}{21}{figure.20}\protected@file@percent }
\newlabel{fig:plotSpHighResDisk}{{20}{21}{The spectrograph high resolution filter and disk flux spectrum}{figure.20}{}}
\@writefile{toc}{\contentsline {subsubsection}{\numberline {4.3.12}Disk high resolution CI filter \& spectrum}{21}{subsubsection.4.3.12}\protected@file@percent }
\@writefile{lof}{\contentsline {figure}{\numberline {21}{\ignorespaces The context imager high resolution filter and disk flux spectrum.}}{22}{figure.21}\protected@file@percent }
\newlabel{fig:plotCiHighResDisk}{{21}{22}{The context imager high resolution filter and disk flux spectrum}{figure.21}{}}
\@writefile{toc}{\contentsline {subsection}{\numberline {4.4}Instrument Program Tree and Timeline}{22}{subsection.4.4}\protected@file@percent }
\newlabel{sec:optree}{{4.4}{22}{Instrument Program Tree and Timeline}{subsection.4.4}{}}
\@writefile{toc}{\contentsline {paragraph}{Instrument Configuration}{22}{section*.14}\protected@file@percent }
\@writefile{toc}{\contentsline {paragraph}{Instrument Program}{22}{section*.15}\protected@file@percent }
\@writefile{toc}{\contentsline {subsubsection}{\numberline {4.4.1}Add configuration to program control}{22}{subsubsection.4.4.1}\protected@file@percent }
\@writefile{toc}{\contentsline {paragraph}{Simultaneous configuration}{22}{section*.16}\protected@file@percent }
\@writefile{toc}{\contentsline {subsubsection}{\numberline {4.4.2}Tree}{22}{subsubsection.4.4.2}\protected@file@percent }
\newlabel{txt:saveProgram}{{4.4.2}{23}{Tree}{subsubsection.4.4.2}{}}
\@writefile{lof}{\contentsline {figure}{\numberline {22}{\ignorespaces The left hand side of the tree view showing the configurations that were added to the instrument program.}}{23}{figure.22}\protected@file@percent }
\newlabel{fig:treeLeft}{{22}{23}{The left hand side of the tree view showing the configurations that were added to the instrument program}{figure.22}{}}
\@writefile{toc}{\contentsline {subsubsection}{\numberline {4.4.3}Timeline}{23}{subsubsection.4.4.3}\protected@file@percent }
\@writefile{lof}{\contentsline {figure}{\numberline {23}{\ignorespaces The right hand side of the tree view is showing the details of a selected configuration in the tree.}}{24}{figure.23}\protected@file@percent }
\newlabel{fig:treeRight}{{23}{24}{The right hand side of the tree view is showing the details of a selected configuration in the tree}{figure.23}{}}
\@writefile{lof}{\contentsline {figure}{\numberline {24}{\ignorespaces The timeline view of the IPC GUI shows the timing of the instrument program.}}{24}{figure.24}\protected@file@percent }
\newlabel{fig:timeline}{{24}{24}{The timeline view of the IPC GUI shows the timing of the instrument program}{figure.24}{}}
\@writefile{toc}{\contentsline {subsection}{\numberline {4.5}Menu list}{24}{subsection.4.5}\protected@file@percent }
\@writefile{toc}{\contentsline {subsubsection}{\numberline {4.5.1}File}{24}{subsubsection.4.5.1}\protected@file@percent }
\@writefile{toc}{\contentsline {paragraph}{Instrument Configuration}{24}{section*.17}\protected@file@percent }
\@writefile{toc}{\contentsline {paragraph}{Instrument Program}{24}{section*.18}\protected@file@percent }
\abx@aux@cite{0}{kuhn1996}
\abx@aux@segm{0}{0}{kuhn1996}
\abx@aux@cite{0}{delZanna2018}
\abx@aux@segm{0}{0}{delZanna2018}
\abx@aux@cite{0}{delZanna2018}
\abx@aux@segm{0}{0}{delZanna2018}
\abx@aux@cite{0}{delZanna2018}
\abx@aux@segm{0}{0}{delZanna2018}
\abx@aux@cite{0}{delZanna2018}
\abx@aux@segm{0}{0}{delZanna2018}
\gdef\minted@oldcachelist{,
  default.pygstyle,
  7A5B6D2AA04EC978A37751DE4DB89A1D82CA0C42AFE0759A4F1491A6B69BC02A.pygtex,
  7A5B6D2AA04EC978A37751DE4DB89A1D82CA0C42AFE0759A4F1491A6B69BC02A.pygtex,
  BC88779A4251DDC422BEE2F50EF32A41A8F85269EE28E737734663FE65D0CEDB.pygtex,
  3EF6F79FA5778E49382C9AD1BCFD978FA8F85269EE28E737734663FE65D0CEDB.pygtex,
  C5100DE117EC3E572786F367408591D1A8F85269EE28E737734663FE65D0CEDB.pygtex,
  89DECBEBC7896ED68ACB0345FF215062A8F85269EE28E737734663FE65D0CEDB.pygtex,
  DFEDAC738E196B0C119E63C5A923A070A8F85269EE28E737734663FE65D0CEDB.pygtex,
  6F280A1C1714DEB148FAB80BE99212D8A8F85269EE28E737734663FE65D0CEDB.pygtex,
  A0A58D515C095F878F007CC24602382AA8F85269EE28E737734663FE65D0CEDB.pygtex,
  E8C6A30B33684DCD61F58EDA855EA1A7A8F85269EE28E737734663FE65D0CEDB.pygtex}
\@writefile{toc}{\contentsline {subsubsection}{\numberline {4.5.2}Input Models}{25}{subsubsection.4.5.2}\protected@file@percent }
\abx@aux@page{1}{25}
\abx@aux@page{2}{25}
\abx@aux@page{3}{25}
\abx@aux@page{4}{25}
\abx@aux@page{5}{25}
\@writefile{toc}{\contentsline {subsubsection}{\numberline {4.5.3}Advanced}{25}{subsubsection.4.5.3}\protected@file@percent }
\@writefile{toc}{\contentsline {section}{\numberline {5}Change Log}{25}{section.5}\protected@file@percent }
\@writefile{toc}{\contentsline {subsection}{\numberline {5.1}Version 20200515-1 15. May 2020}{25}{subsection.5.1}\protected@file@percent }
\@writefile{toc}{\contentsline {subsection}{\numberline {5.2}Version 1 Initial Release (13. September 2018)}{25}{subsection.5.2}\protected@file@percent }
\abx@aux@page{6}{25}
\abx@aux@page{7}{25}
\@writefile{toc}{\contentsline {section}{References}{25}{section*.19}\protected@file@percent }
\abx@aux@read@bbl@mdfivesum{90D4A854FF56A0B705507CD479EF7A31}
\abx@aux@defaultrefcontext{0}{delZanna2018}{nyt/global//global/global}
\abx@aux@defaultrefcontext{0}{kuhn1996}{nyt/global//global/global}
\gdef \@abspage@last{25}
